PCBNEW-LibModule-V1  2021-06-04 16:03:43
# encoding utf-8
Units mm
$INDEX
THRMC1608X90N
$EndINDEX
$MODULE THRMC1608X90N
Po 0 0 0 15 60ba40cf 00000000 ~~
Li THRMC1608X90N
Cd 1608
Kw Thermistor
Sc 0
At SMD
AR 
Op 0 0 0
T0 0 0 1.27 1.27 0 0.254 N V 21 N "RT**"
T1 0 0 1.27 1.27 0 0.254 N I 21 N "THRMC1608X90N"
DS -1.5 -0.75 1.5 -0.75 0.05 24
DS 1.5 -0.75 1.5 0.75 0.05 24
DS 1.5 0.75 -1.5 0.75 0.05 24
DS -1.5 0.75 -1.5 -0.75 0.05 24
DS -0.8 -0.4 0.8 -0.4 0.1 24
DS 0.8 -0.4 0.8 0.4 0.1 24
DS 0.8 0.4 -0.8 0.4 0.1 24
DS -0.8 0.4 -0.8 -0.4 0.1 24
DS 0 -0.3 0 0.3 0.2 21
$PAD
Po -0.9 0
Sh "1" R 0.7 0.95 0 0 0
At SMD N 00888000
Ne 0 ""
$EndPAD
$PAD
Po 0.9 0
Sh "2" R 0.7 0.95 0 0 0
At SMD N 00888000
Ne 0 ""
$EndPAD
$EndMODULE THRMC1608X90N
$EndLIBRARY
